<?xml version="1.0" encoding="utf-8"  standalone="no"?>
<svg
 width="600" height="480"
 viewBox="0 0 600 480"
 xmlns="http://www.w3.org/2000/svg"
 xmlns:xlink="http://www.w3.org/1999/xlink"
>

<title>Gnuplot</title>
<desc>Produced by GNUPLOT 5.0 patchlevel 6 </desc>

<g id="gnuplot_canvas">

<rect x="0" y="0" width="600" height="480" fill="#ffffff"/>
<defs>

	<circle id='gpDot' r='0.5' stroke-width='0.5'/>
	<path id='gpPt0' stroke-width='0.222' stroke='currentColor' d='M-1,0 h2 M0,-1 v2'/>
	<path id='gpPt1' stroke-width='0.222' stroke='currentColor' d='M-1,-1 L1,1 M1,-1 L-1,1'/>
	<path id='gpPt2' stroke-width='0.222' stroke='currentColor' d='M-1,0 L1,0 M0,-1 L0,1 M-1,-1 L1,1 M-1,1 L1,-1'/>
	<rect id='gpPt3' stroke-width='0.222' stroke='currentColor' x='-1' y='-1' width='2' height='2'/>
	<rect id='gpPt4' stroke-width='0.222' stroke='currentColor' fill='currentColor' x='-1' y='-1' width='2' height='2'/>
	<circle id='gpPt5' stroke-width='0.222' stroke='currentColor' cx='0' cy='0' r='1'/>
	<use xlink:href='#gpPt5' id='gpPt6' fill='currentColor' stroke='none'/>
	<path id='gpPt7' stroke-width='0.222' stroke='currentColor' d='M0,-1.33 L-1.33,0.67 L1.33,0.67 z'/>
	<use xlink:href='#gpPt7' id='gpPt8' fill='currentColor' stroke='none'/>
	<use xlink:href='#gpPt7' id='gpPt9' stroke='currentColor' transform='rotate(180)'/>
	<use xlink:href='#gpPt9' id='gpPt10' fill='currentColor' stroke='none'/>
	<use xlink:href='#gpPt3' id='gpPt11' stroke='currentColor' transform='rotate(45)'/>
	<use xlink:href='#gpPt11' id='gpPt12' fill='currentColor' stroke='none'/>
	<path id='gpPt13' stroke-width='0.222' stroke='currentColor' d='M0,1.330 L1.265,0.411 L0.782,-1.067 L-0.782,-1.076 L-1.265,0.411 z'/>
	<use xlink:href='#gpPt13' id='gpPt14' fill='currentColor' stroke='none'/>
	<filter id='textbox' filterUnits='objectBoundingBox' x='0' y='0' height='1' width='1'>
	  <feFlood flood-color='#FFFFFF' flood-opacity='1' result='bgnd'/>
	  <feComposite in='SourceGraphic' in2='bgnd' operator='atop'/>
	</filter>
	<filter id='greybox' filterUnits='objectBoundingBox' x='0' y='0' height='1' width='1'>
	  <feFlood flood-color='lightgrey' flood-opacity='1' result='grey'/>
	  <feComposite in='SourceGraphic' in2='grey' operator='atop'/>
	</filter>
</defs>
<g fill="none" color="#FFFFFF" stroke="currentColor" stroke-width="1.00" stroke-linecap="butt" stroke-linejoin="miter">
</g>
<g fill="none" color="black" stroke="currentColor" stroke-width="1.00" stroke-linecap="butt" stroke-linejoin="miter">
	<path stroke='black'  d='M55.3,422.4 L64.3,422.4 M575.0,422.4 L566.0,422.4  '/>	<g transform="translate(47.0,426.3)" stroke="none" fill="black" font-family="Arial" font-size="12.00"  text-anchor="end">
		<text><tspan font-family="Arial" > 0</tspan></text>
	</g>
</g>
<g fill="none" color="black" stroke="currentColor" stroke-width="1.00" stroke-linecap="butt" stroke-linejoin="miter">
	<path stroke='black'  d='M55.3,341.3 L64.3,341.3 M575.0,341.3 L566.0,341.3  '/>	<g transform="translate(47.0,345.2)" stroke="none" fill="black" font-family="Arial" font-size="12.00"  text-anchor="end">
		<text><tspan font-family="Arial" > 1</tspan></text>
	</g>
</g>
<g fill="none" color="black" stroke="currentColor" stroke-width="1.00" stroke-linecap="butt" stroke-linejoin="miter">
	<path stroke='black'  d='M55.3,260.1 L64.3,260.1 M575.0,260.1 L566.0,260.1  '/>	<g transform="translate(47.0,264.0)" stroke="none" fill="black" font-family="Arial" font-size="12.00"  text-anchor="end">
		<text><tspan font-family="Arial" > 2</tspan></text>
	</g>
</g>
<g fill="none" color="black" stroke="currentColor" stroke-width="1.00" stroke-linecap="butt" stroke-linejoin="miter">
	<path stroke='black'  d='M55.3,179.0 L64.3,179.0 M575.0,179.0 L566.0,179.0  '/>	<g transform="translate(47.0,182.9)" stroke="none" fill="black" font-family="Arial" font-size="12.00"  text-anchor="end">
		<text><tspan font-family="Arial" > 3</tspan></text>
	</g>
</g>
<g fill="none" color="black" stroke="currentColor" stroke-width="1.00" stroke-linecap="butt" stroke-linejoin="miter">
	<path stroke='black'  d='M55.3,97.8 L64.3,97.8 M575.0,97.8 L566.0,97.8  '/>	<g transform="translate(47.0,101.7)" stroke="none" fill="black" font-family="Arial" font-size="12.00"  text-anchor="end">
		<text><tspan font-family="Arial" > 4</tspan></text>
	</g>
</g>
<g fill="none" color="black" stroke="currentColor" stroke-width="1.00" stroke-linecap="butt" stroke-linejoin="miter">
	<path stroke='black'  d='M55.3,16.7 L64.3,16.7 M575.0,16.7 L566.0,16.7  '/>	<g transform="translate(47.0,20.6)" stroke="none" fill="black" font-family="Arial" font-size="12.00"  text-anchor="end">
		<text><tspan font-family="Arial" > 5</tspan></text>
	</g>
</g>
<g fill="none" color="black" stroke="currentColor" stroke-width="1.00" stroke-linecap="butt" stroke-linejoin="miter">
	<path stroke='black'  d='M55.3,422.4 L55.3,413.4 M55.3,16.7 L55.3,25.7  '/>	<g transform="translate(55.3,444.3)" stroke="none" fill="black" font-family="Arial" font-size="12.00"  text-anchor="middle">
		<text><tspan font-family="Arial" > 0</tspan></text>
	</g>
</g>
<g fill="none" color="black" stroke="currentColor" stroke-width="1.00" stroke-linecap="butt" stroke-linejoin="miter">
	<path stroke='black'  d='M185.2,422.4 L185.2,413.4 M185.2,16.7 L185.2,25.7  '/>	<g transform="translate(185.2,444.3)" stroke="none" fill="black" font-family="Arial" font-size="12.00"  text-anchor="middle">
		<text><tspan font-family="Arial" > 5</tspan></text>
	</g>
</g>
<g fill="none" color="black" stroke="currentColor" stroke-width="1.00" stroke-linecap="butt" stroke-linejoin="miter">
	<path stroke='black'  d='M315.2,422.4 L315.2,413.4 M315.2,16.7 L315.2,25.7  '/>	<g transform="translate(315.2,444.3)" stroke="none" fill="black" font-family="Arial" font-size="12.00"  text-anchor="middle">
		<text><tspan font-family="Arial" > 10</tspan></text>
	</g>
</g>
<g fill="none" color="black" stroke="currentColor" stroke-width="1.00" stroke-linecap="butt" stroke-linejoin="miter">
	<path stroke='black'  d='M445.1,422.4 L445.1,413.4 M445.1,16.7 L445.1,25.7  '/>	<g transform="translate(445.1,444.3)" stroke="none" fill="black" font-family="Arial" font-size="12.00"  text-anchor="middle">
		<text><tspan font-family="Arial" > 15</tspan></text>
	</g>
</g>
<g fill="none" color="black" stroke="currentColor" stroke-width="1.00" stroke-linecap="butt" stroke-linejoin="miter">
	<path stroke='black'  d='M575.0,422.4 L575.0,413.4 M575.0,16.7 L575.0,25.7  '/>	<g transform="translate(575.0,444.3)" stroke="none" fill="black" font-family="Arial" font-size="12.00"  text-anchor="middle">
		<text><tspan font-family="Arial" > 20</tspan></text>
	</g>
</g>
<g fill="none" color="black" stroke="currentColor" stroke-width="1.00" stroke-linecap="butt" stroke-linejoin="miter">
</g>
<g fill="none" color="black" stroke="currentColor" stroke-width="1.00" stroke-linecap="butt" stroke-linejoin="miter">
	<path stroke='black'  d='M55.3,16.7 L55.3,422.4 L575.0,422.4 L575.0,16.7 L55.3,16.7 Z  '/></g>
<g fill="none" color="black" stroke="currentColor" stroke-width="1.00" stroke-linecap="butt" stroke-linejoin="miter">
	<g transform="translate(17.0,219.6) rotate(270)" stroke="none" fill="black" font-family="Arial" font-size="12.00"  text-anchor="middle">
		<text><tspan font-family="Arial" >accel factor</tspan></text>
	</g>
</g>
<g fill="none" color="black" stroke="currentColor" stroke-width="1.00" stroke-linecap="butt" stroke-linejoin="miter">
	<g transform="translate(315.1,471.3)" stroke="none" fill="black" font-family="Arial" font-size="12.00"  text-anchor="middle">
		<text><tspan font-family="Arial" >delta (units)</tspan></text>
	</g>
</g>
<g fill="none" color="black" stroke="currentColor" stroke-width="1.00" stroke-linecap="butt" stroke-linejoin="miter">
</g>
	<g id="gnuplot_plot_1" ><title>-1</title>
<g fill="none" color="black" stroke="currentColor" stroke-width="1.00" stroke-linecap="butt" stroke-linejoin="miter">
	<g transform="translate(507.9,38.6)" stroke="none" fill="black" font-family="Arial" font-size="12.00"  text-anchor="end">
		<text><tspan font-family="Arial" >-1</tspan></text>
	</g>
</g>
<g fill="none" color="black" stroke="currentColor" stroke-width="1.00" stroke-linecap="butt" stroke-linejoin="miter">
	<path stroke='rgb(148,   0, 211)'  d='M516.2,34.7 L558.4,34.7 M55.3,422.4 L60.5,418.5 L65.7,414.6 L70.9,410.7 L76.1,406.8 L81.3,402.9
		L86.5,399.0 L91.7,395.1 L96.9,391.2 L102.1,387.3 L107.3,383.5 L112.5,379.6 L117.7,375.7 L122.9,371.8
		L128.1,367.9 L133.3,364.0 L138.5,360.1 L143.6,356.2 L148.8,352.3 L154.0,348.4 L159.2,344.5 L164.4,340.6
		L169.6,336.7 L174.8,332.8 L180.0,328.9 L185.2,325.0 L190.4,321.1 L195.6,317.2 L200.8,313.3 L206.0,310.0
		L211.2,310.0 L216.4,310.0 L221.6,310.0 L226.8,310.0 L232.0,310.0 L237.2,310.0 L242.4,310.0 L247.6,310.0
		L252.8,310.0 L258.0,310.0 L263.2,310.0 L268.4,310.0 L273.6,310.0 L278.8,310.0 L284.0,310.0 L289.2,310.0
		L294.4,310.0 L299.6,310.0 L304.8,310.0 L310.0,310.0 L315.2,310.0 L320.3,310.0 L325.5,310.0 L330.7,310.0
		L335.9,310.0 L341.1,310.0 L346.3,310.0 L351.5,310.0 L356.7,310.0 L361.9,310.0 L367.1,310.0 L372.3,310.0
		L377.5,310.0 L382.7,310.0 L387.9,310.0 L393.1,310.0 L398.3,310.0 L403.5,310.0 L408.7,310.0 L413.9,310.0
		L419.1,310.0 L424.3,310.0 L429.5,310.0 L434.7,310.0 L439.9,310.0 L445.1,310.0 L450.3,310.0 L455.5,310.0
		L460.7,310.0 L465.9,310.0 L471.1,310.0 L476.3,310.0 L481.5,310.0 L486.7,310.0 L491.8,310.0 L497.0,310.0
		L502.2,310.0 L507.4,310.0 L512.6,310.0 L517.8,310.0 L523.0,310.0 L528.2,310.0 L533.4,310.0 L538.6,310.0
		L543.8,310.0 L549.0,310.0 L554.2,310.0 L559.4,310.0 L564.6,310.0 L569.8,310.0 L575.0,310.0  '/></g>
	</g>
	<g id="gnuplot_plot_2" ><title>-0.75</title>
<g fill="none" color="black" stroke="currentColor" stroke-width="1.00" stroke-linecap="butt" stroke-linejoin="miter">
	<g transform="translate(507.9,56.6)" stroke="none" fill="black" font-family="Arial" font-size="12.00"  text-anchor="end">
		<text><tspan font-family="Arial" >-0.75</tspan></text>
	</g>
</g>
<g fill="none" color="black" stroke="currentColor" stroke-width="1.00" stroke-linecap="butt" stroke-linejoin="miter">
	<path stroke='rgb(  0, 158, 115)'  d='M516.2,52.7 L558.4,52.7 M55.3,422.4 L60.5,415.3 L65.7,408.1 L70.9,401.0 L76.1,393.8 L81.3,386.7
		L86.5,379.6 L91.7,372.4 L96.9,365.3 L102.1,358.1 L107.3,351.0 L112.5,343.9 L117.7,336.7 L122.9,329.6
		L128.1,322.4 L133.3,315.3 L138.5,308.2 L143.6,301.0 L148.8,293.9 L154.0,286.7 L159.2,279.6 L164.4,272.5
		L169.6,270.7 L174.8,270.7 L180.0,270.7 L185.2,270.7 L190.4,270.7 L195.6,270.7 L200.8,270.7 L206.0,270.7
		L211.2,270.7 L216.4,270.7 L221.6,270.7 L226.8,270.7 L232.0,270.7 L237.2,270.7 L242.4,270.7 L247.6,270.7
		L252.8,270.7 L258.0,270.7 L263.2,270.7 L268.4,270.7 L273.6,270.7 L278.8,270.7 L284.0,270.7 L289.2,270.7
		L294.4,270.7 L299.6,270.7 L304.8,270.7 L310.0,270.7 L315.2,270.7 L320.3,270.7 L325.5,270.7 L330.7,270.7
		L335.9,270.7 L341.1,270.7 L346.3,270.7 L351.5,270.7 L356.7,270.7 L361.9,270.7 L367.1,270.7 L372.3,270.7
		L377.5,270.7 L382.7,270.7 L387.9,270.7 L393.1,270.7 L398.3,270.7 L403.5,270.7 L408.7,270.7 L413.9,270.7
		L419.1,270.7 L424.3,270.7 L429.5,270.7 L434.7,270.7 L439.9,270.7 L445.1,270.7 L450.3,270.7 L455.5,270.7
		L460.7,270.7 L465.9,270.7 L471.1,270.7 L476.3,270.7 L481.5,270.7 L486.7,270.7 L491.8,270.7 L497.0,270.7
		L502.2,270.7 L507.4,270.7 L512.6,270.7 L517.8,270.7 L523.0,270.7 L528.2,270.7 L533.4,270.7 L538.6,270.7
		L543.8,270.7 L549.0,270.7 L554.2,270.7 L559.4,270.7 L564.6,270.7 L569.8,270.7 L575.0,270.7  '/></g>
	</g>
	<g id="gnuplot_plot_3" ><title>-0.5</title>
<g fill="none" color="black" stroke="currentColor" stroke-width="1.00" stroke-linecap="butt" stroke-linejoin="miter">
	<g transform="translate(507.9,74.6)" stroke="none" fill="black" font-family="Arial" font-size="12.00"  text-anchor="end">
		<text><tspan font-family="Arial" >-0.5</tspan></text>
	</g>
</g>
<g fill="none" color="black" stroke="currentColor" stroke-width="1.00" stroke-linecap="butt" stroke-linejoin="miter">
	<path stroke='rgb( 86, 180, 233)'  d='M516.2,70.7 L558.4,70.7 M55.3,422.4 L60.5,412.0 L65.7,401.6 L70.9,391.2 L76.1,380.9 L81.3,370.5
		L86.5,360.1 L91.7,349.7 L96.9,339.3 L102.1,328.9 L107.3,318.5 L112.5,308.2 L117.7,297.8 L122.9,287.4
		L128.1,277.0 L133.3,266.6 L138.5,256.2 L143.6,245.8 L148.8,235.5 L154.0,225.1 L159.2,217.6 L164.4,217.6
		L169.6,217.6 L174.8,217.6 L180.0,217.6 L185.2,217.6 L190.4,217.6 L195.6,217.6 L200.8,217.6 L206.0,217.6
		L211.2,217.6 L216.4,217.6 L221.6,217.6 L226.8,217.6 L232.0,217.6 L237.2,217.6 L242.4,217.6 L247.6,217.6
		L252.8,217.6 L258.0,217.6 L263.2,217.6 L268.4,217.6 L273.6,217.6 L278.8,217.6 L284.0,217.6 L289.2,217.6
		L294.4,217.6 L299.6,217.6 L304.8,217.6 L310.0,217.6 L315.2,217.6 L320.3,217.6 L325.5,217.6 L330.7,217.6
		L335.9,217.6 L341.1,217.6 L346.3,217.6 L351.5,217.6 L356.7,217.6 L361.9,217.6 L367.1,217.6 L372.3,217.6
		L377.5,217.6 L382.7,217.6 L387.9,217.6 L393.1,217.6 L398.3,217.6 L403.5,217.6 L408.7,217.6 L413.9,217.6
		L419.1,217.6 L424.3,217.6 L429.5,217.6 L434.7,217.6 L439.9,217.6 L445.1,217.6 L450.3,217.6 L455.5,217.6
		L460.7,217.6 L465.9,217.6 L471.1,217.6 L476.3,217.6 L481.5,217.6 L486.7,217.6 L491.8,217.6 L497.0,217.6
		L502.2,217.6 L507.4,217.6 L512.6,217.6 L517.8,217.6 L523.0,217.6 L528.2,217.6 L533.4,217.6 L538.6,217.6
		L543.8,217.6 L549.0,217.6 L554.2,217.6 L559.4,217.6 L564.6,217.6 L569.8,217.6 L575.0,217.6  '/></g>
	</g>
	<g id="gnuplot_plot_4" ><title>-0.25</title>
<g fill="none" color="black" stroke="currentColor" stroke-width="1.00" stroke-linecap="butt" stroke-linejoin="miter">
	<g transform="translate(507.9,92.6)" stroke="none" fill="black" font-family="Arial" font-size="12.00"  text-anchor="end">
		<text><tspan font-family="Arial" >-0.25</tspan></text>
	</g>
</g>
<g fill="none" color="black" stroke="currentColor" stroke-width="1.00" stroke-linecap="butt" stroke-linejoin="miter">
	<path stroke='rgb(230, 159,   0)'  d='M516.2,88.7 L558.4,88.7 M55.3,422.4 L60.5,408.8 L65.7,395.1 L70.9,381.5 L76.1,367.9 L81.3,354.2
		L86.5,340.6 L91.7,327.0 L96.9,313.3 L102.1,299.7 L107.3,286.1 L112.5,272.5 L117.7,258.8 L122.9,245.2
		L128.1,231.6 L133.3,217.9 L138.5,204.3 L143.6,190.7 L148.8,177.0 L154.0,163.4 L159.2,149.8 L164.4,145.9
		L169.6,145.9 L174.8,145.9 L180.0,145.9 L185.2,145.9 L190.4,145.9 L195.6,145.9 L200.8,145.9 L206.0,145.9
		L211.2,145.9 L216.4,145.9 L221.6,145.9 L226.8,145.9 L232.0,145.9 L237.2,145.9 L242.4,145.9 L247.6,145.9
		L252.8,145.9 L258.0,145.9 L263.2,145.9 L268.4,145.9 L273.6,145.9 L278.8,145.9 L284.0,145.9 L289.2,145.9
		L294.4,145.9 L299.6,145.9 L304.8,145.9 L310.0,145.9 L315.2,145.9 L320.3,145.9 L325.5,145.9 L330.7,145.9
		L335.9,145.9 L341.1,145.9 L346.3,145.9 L351.5,145.9 L356.7,145.9 L361.9,145.9 L367.1,145.9 L372.3,145.9
		L377.5,145.9 L382.7,145.9 L387.9,145.9 L393.1,145.9 L398.3,145.9 L403.5,145.9 L408.7,145.9 L413.9,145.9
		L419.1,145.9 L424.3,145.9 L429.5,145.9 L434.7,145.9 L439.9,145.9 L445.1,145.9 L450.3,145.9 L455.5,145.9
		L460.7,145.9 L465.9,145.9 L471.1,145.9 L476.3,145.9 L481.5,145.9 L486.7,145.9 L491.8,145.9 L497.0,145.9
		L502.2,145.9 L507.4,145.9 L512.6,145.9 L517.8,145.9 L523.0,145.9 L528.2,145.9 L533.4,145.9 L538.6,145.9
		L543.8,145.9 L549.0,145.9 L554.2,145.9 L559.4,145.9 L564.6,145.9 L569.8,145.9 L575.0,145.9  '/></g>
	</g>
	<g id="gnuplot_plot_5" ><title>0</title>
<g fill="none" color="black" stroke="currentColor" stroke-width="1.00" stroke-linecap="butt" stroke-linejoin="miter">
	<g transform="translate(507.9,110.6)" stroke="none" fill="black" font-family="Arial" font-size="12.00"  text-anchor="end">
		<text><tspan font-family="Arial" >0</tspan></text>
	</g>
</g>
<g fill="none" color="black" stroke="currentColor" stroke-width="1.00" stroke-linecap="butt" stroke-linejoin="miter">
	<path stroke='rgb(240, 228,  66)'  d='M516.2,106.7 L558.4,106.7 M55.3,422.4 L60.5,405.5 L65.7,388.6 L70.9,371.8 L76.1,354.9 L81.3,338.0
		L86.5,321.1 L91.7,304.3 L96.9,287.4 L102.1,270.5 L107.3,253.6 L112.5,236.8 L117.7,219.9 L122.9,203.0
		L128.1,186.1 L133.3,169.2 L138.5,152.4 L143.6,135.5 L148.8,118.6 L154.0,101.7 L159.2,84.9 L164.4,68.0
		L169.6,51.1 L174.8,49.2 L180.0,49.2 L185.2,49.2 L190.4,49.2 L195.6,49.2 L200.8,49.2 L206.0,49.2
		L211.2,49.2 L216.4,49.2 L221.6,49.2 L226.8,49.2 L232.0,49.2 L237.2,49.2 L242.4,49.2 L247.6,49.2
		L252.8,49.2 L258.0,49.2 L263.2,49.2 L268.4,49.2 L273.6,49.2 L278.8,49.2 L284.0,49.2 L289.2,49.2
		L294.4,49.2 L299.6,49.2 L304.8,49.2 L310.0,49.2 L315.2,49.2 L320.3,49.2 L325.5,49.2 L330.7,49.2
		L335.9,49.2 L341.1,49.2 L346.3,49.2 L351.5,49.2 L356.7,49.2 L361.9,49.2 L367.1,49.2 L372.3,49.2
		L377.5,49.2 L382.7,49.2 L387.9,49.2 L393.1,49.2 L398.3,49.2 L403.5,49.2 L408.7,49.2 L413.9,49.2
		L419.1,49.2 L424.3,49.2 L429.5,49.2 L434.7,49.2 L439.9,49.2 L445.1,49.2 L450.3,49.2 L455.5,49.2
		L460.7,49.2 L465.9,49.2 L471.1,49.2 L476.3,49.2 L481.5,49.2 L486.7,49.2 L491.8,49.2 L497.0,49.2
		L502.2,49.2 L507.4,49.2 L512.6,49.2 L517.8,49.2 L523.0,49.2 L528.2,49.2 L533.4,49.2 L538.6,49.2
		L543.8,49.2 L549.0,49.2 L554.2,49.2 L559.4,49.2 L564.6,49.2 L569.8,49.2 L575.0,49.2  '/></g>
	</g>
	<g id="gnuplot_plot_6" ><title>0.5</title>
<g fill="none" color="black" stroke="currentColor" stroke-width="1.00" stroke-linecap="butt" stroke-linejoin="miter">
	<g transform="translate(507.9,128.6)" stroke="none" fill="black" font-family="Arial" font-size="12.00"  text-anchor="end">
		<text><tspan font-family="Arial" >0.5</tspan></text>
	</g>
</g>
<g fill="none" color="black" stroke="currentColor" stroke-width="1.00" stroke-linecap="butt" stroke-linejoin="miter">
	<path stroke='rgb(  0, 114, 178)'  d='M516.2,124.7 L558.4,124.7 M55.3,422.4 L60.5,399.0 L65.7,375.7 L70.9,352.3 L76.1,328.9 L81.3,305.6
		L86.5,282.2 L91.7,258.8 L96.9,235.5 L102.1,212.1 L107.3,188.7 L112.5,165.3 L117.7,142.0 L122.9,118.6
		L128.1,95.2 L133.3,71.9 L138.5,48.5 L143.6,25.1 L145.5,16.7  '/></g>
	</g>
	<g id="gnuplot_plot_7" ><title>1</title>
<g fill="none" color="black" stroke="currentColor" stroke-width="1.00" stroke-linecap="butt" stroke-linejoin="miter">
	<g transform="translate(507.9,146.6)" stroke="none" fill="black" font-family="Arial" font-size="12.00"  text-anchor="end">
		<text><tspan font-family="Arial" >1</tspan></text>
	</g>
</g>
<g fill="none" color="black" stroke="currentColor" stroke-width="1.00" stroke-linecap="butt" stroke-linejoin="miter">
	<path stroke='rgb(229,  30,  16)'  d='M516.2,142.7 L558.4,142.7 M55.3,422.4 L60.5,392.5 L65.7,362.7 L70.9,332.8 L76.1,303.0 L81.3,273.1
		L86.5,243.2 L91.7,213.4 L96.9,183.5 L102.1,153.7 L107.3,123.8 L112.5,93.9 L117.7,64.1 L122.9,34.2
		L125.9,16.7  '/></g>
	</g>
<g fill="none" color="#FFFFFF" stroke="rgb(229,  30,  16)" stroke-width="2.00" stroke-linecap="butt" stroke-linejoin="miter">
</g>
<g fill="none" color="black" stroke="currentColor" stroke-width="2.00" stroke-linecap="butt" stroke-linejoin="miter">
</g>
<g fill="none" color="black" stroke="black" stroke-width="1.00" stroke-linecap="butt" stroke-linejoin="miter">
</g>
<g fill="none" color="black" stroke="currentColor" stroke-width="1.00" stroke-linecap="butt" stroke-linejoin="miter">
	<path stroke='black'  d='M55.3,16.7 L55.3,422.4 L575.0,422.4 L575.0,16.7 L55.3,16.7 Z  '/></g>
<g fill="none" color="black" stroke="currentColor" stroke-width="1.00" stroke-linecap="butt" stroke-linejoin="miter">
</g>
</g>
</svg>
